{
  "images" : [
    {
      "idiom" : "iphone",
      "scale" : "1x"
    },
    {
      "idiom" : "iphone",
      "scale" : "2x"
    },
    {
      "idiom" : "iphone",
      "filename" : "pull_down_arrow@3x.png",
      "scale" : "3x"
    },
    {
      "idiom" : "ipad",
      "filename" : "pull_down_arrow~ipad.png",
      "scale" : "1x"
    },
    {
      "idiom" : "ipad",
      "filename" : "pull_down_arrow~ipad@2x.png",
      "scale" : "2x"
    }
  ],
  "info" : {
    "version" : 1,
    "author" : "xcode"
  }
}